[{
    "Correo": "clinica@gmail.com",
    "Direccion": "Lago De Patzcuaro Oriente 620 Dsa Adsasdas",
    "Logo": "9941530imagen_200630_27318464873.jpg",
    "NombreSucursal": "aClinica Puebla Matriz Fdsf Adsa Sdadas",
    "Whatsapp": "3256565656",
    "idSucursal": "1"
  },
  {
    "Correo": "eclinica@gmail.com",
    "Direccion": "rio ",
    "Logo": "9941530imagen_200630_27318464873.jpg",
    "NombreSucursal": "bClinica Puebla Matriz Fdsf Adsa Sdadas",
    "Whatsapp": "4256565656",
    "idSucursal": "1"
  },
  {
    "Correo": "dclinica@gmail.com",
    "Direccion": "sur",
    "Logo": "9941530imagen_200630_27318464873.jpg",
    "NombreSucursal": "cClinica Puebla Matriz Fdsf Adsa Sdadas",
    "Whatsapp": "3256565656",
    "idSucursal": "1"
  },
  {
    "Correo": "bclinica@gmail.com",
    "Direccion": "norte",
    "Logo": "9941530imagen_200630_27318464873.jpg",
    "NombreSucursal": "dClinica Puebla Matriz Fdsf Adsa Sdadas",
    "Whatsapp": "3256565656",
    "idSucursal": "1"
  },
  {
    "Correo": "aclinica@gmail.com",
    "Direccion": "este",
    "Logo": "9941530imagen_200630_27318464873.jpg",
    "NombreSucursal": "eClinica Puebla Matriz Fdsf Adsa Sdadas",
    "Whatsapp": "3256565656",
    "idSucursal": "1"
  }
]
